{
   "name": "Black Frost",
   "type": "Ice",
   "staminaUsage": 40,
   "target": "Multi",
   "cooldown": 1,
   "modifier": [
      {
         "type": "damage",
         "power": 90,
         "attackStat": "Special Attack",
         "defenseStat": "Special Defense"
      },
      {
         "type": "Status",
         "status": "freeze",
         "power": 30
      }
   ]
}
